<svg width="25" height="25" viewBox="0 0 25 25" version="1.1" xmlns="http://www.w3.org/2000/svg" xmlns:xlink="http://www.w3.org/1999/xlink">
<title>! blue 2</title>
<desc>Created using Figma</desc>
<g id="Canvas" transform="translate(-74 -47)">
<g id="! blue 2">
<path d="M 74 47L 99 47L 99 72L 74 72L 74 47Z" fill="#FFFFFF"/>
<g id="Vector">
<use xlink:href="#path0_fill" transform="translate(74 47)" fill="#FA6432"/>
</g>
<g id="Group">
<g id="Vector">
<use xlink:href="#path1_fill" transform="translate(85.1842 50.9474)" fill="#FFFFFF"/>
</g>
</g>
</g>
</g>
<defs>
<path id="path0_fill" fill-rule="evenodd" d="M 12.5 0C 19.3421 0 25 5.65789 25 12.5C 25 19.3421 19.3421 25 12.5 25C 5.65789 25 0 19.3421 0 12.5C 0 5.65789 5.65789 0 12.5 0Z"/>
<path id="path1_fill" d="M 2.63158 17.1053L 0 17.1053L 0 14.4737L 2.63158 14.4737L 2.63158 17.1053ZM 0 0L 2.63158 0L 2.63158 13.1579L 0 13.1579L 0 0Z"/>
</defs>
</svg>
