<svg xmlns="http://www.w3.org/2000/svg" width="25" height="25" viewBox="0 0 25 25">
    <path fill="#DCDEE0" fill-rule="nonzero" d="M16.777 16.777L21 21l-1 1-4.223-4.223a6.621 6.621 0 1 1 1-1zm-5.156.994a5.15 5.15 0 1 0 0-10.3 5.15 5.15 0 0 0 0 10.3z"/>
</svg>
